<?xml version="1.0" encoding="UTF-8" standalone="no"?>
<svg width="7px" height="10px" viewBox="0 0 7 10" version="1.1" xmlns="http://www.w3.org/2000/svg" xmlns:xlink="http://www.w3.org/1999/xlink">
    <!-- Generator: Sketch 39 (31667) - http://www.bohemiancoding.com/sketch -->
    <title></title>
    <desc>Created with Sketch.</desc>
    <defs></defs>
    <g id="Logins" stroke="none" stroke-width="1" fill="none" fill-rule="evenodd" font-size="12" font-family="FontAwesome" font-weight="normal">
        <g id="Self-Service-Admin-Photo" transform="translate(-935.000000, -410.000000)" fill="#555555">
            <g id="search-bg-+-Visit-Description-Copy-10" transform="translate(657.000000, 379.000000)">
                <text id="">
                    <tspan x="278.142857" y="40"></tspan>
                </text>
            </g>
        </g>
    </g>
</svg>