﻿<?xml version="1.0" encoding="UTF-8"?>
<svg width="11px" height="11px" viewBox="0 0 11 11" version="1.1" xmlns="http://www.w3.org/2000/svg" xmlns:xlink="http://www.w3.org/1999/xlink">
    <!-- Generator: Sketch 42 (36781) - http://www.bohemiancoding.com/sketch -->
    <title>icon/assigned</title>
    <desc>Created with Sketch.</desc>
    <defs></defs>
    <g id="Symbols" stroke="none" stroke-width="1" fill="none" fill-rule="evenodd">
        <g id="icon/assigned" transform="translate(-2.000000, -2.000000)">
            <g id="Icon-24px">
                <g>
                    <polygon id="Shape" points="0 0 16 0 16 16 0 16"></polygon>
                    <path d="M6.5016667,6.5016667 C7.56108547,6.5016667 8.41916672,5.64358545 8.41916672,4.58416669 C8.41916672,3.52474793 7.56108547,2.66666667 6.5016667,2.66666667 C5.44224794,2.66666667 4.58416669,3.52474793 4.58416669,4.58416669 C4.58416669,5.64358545 5.44224794,6.5016667 6.5016667,6.5016667 L6.5016667,6.5016667 Z M6.5016667,7.46041671 C5.22173544,7.46041671 2.66666667,8.10277922 2.66666667,9.37791673 L2.66666667,10.3366667 L10.3366667,10.3366667 L10.3366667,9.37791673 C10.3366667,8.10277922 7.78159797,7.46041671 6.5016667,7.46041671 L6.5016667,7.46041671 Z" id="Shape" fill="#D1D1D1"></path>
                    <polygon id="Shape" fill="#31CC71" points="7 10.962963 7.84 10.0987654 8.98 11.2716049 12.16 8 13 8.86419753 8.98 13"></polygon>
                </g>
            </g>
        </g>
    </g>
</svg>