<?xml version="1.0" encoding="UTF-8" standalone="no"?>
<svg width="22px" height="19px" viewBox="0 0 22 19" version="1.1" xmlns="http://www.w3.org/2000/svg" xmlns:xlink="http://www.w3.org/1999/xlink">
    <!-- Generator: Sketch 3.8.3 (29802) - http://www.bohemiancoding.com/sketch -->
    <title>ic_warning_24px</title>
    <desc>Created with Sketch.</desc>
    <defs></defs>
    <g id="VMO" stroke="none" stroke-width="1" fill="none" fill-rule="evenodd">
        <g id="Watchlist" transform="translate(-25.000000, -194.000000)">
            <g id="Tasks" transform="translate(0.000000, 180.000000)">
                <g id="ic_warning_24px" transform="translate(24.000000, 12.000000)">
                    <polygon id="Shape" points="0 0 24 0 24 24 0 24"></polygon>
                    <path d="M1,21 L23,21 L12,2 L1,21 L1,21 Z M13,18 L11,18 L11,16 L13,16 L13,18 L13,18 Z M13,14 L11,14 L11,10 L13,10 L13,14 L13,14 Z" id="Shape" fill="#D0011B"></path>
                </g>
            </g>
        </g>
    </g>
</svg>